<?xml version="1.0" encoding="UTF-8"?>
<svg width="20px" height="18px" viewBox="0 0 20 18" version="1.1" xmlns="http://www.w3.org/2000/svg" xmlns:xlink="http://www.w3.org/1999/xlink">
    <!-- Generator: sketchtool 51.3 (57544) - http://www.bohemiancoding.com/sketch -->
    <title>113426E0-5C9F-41D6-AB56-F5239ACA2C48</title>
    <desc>Created with sketchtool.</desc>
    <defs></defs>
    <g id="Page-1" stroke="none" stroke-width="1" fill="none" fill-rule="evenodd">
        <g id="Pasco_Calendar_miniUIkit" transform="translate(-1037.000000, -1179.000000)">
            <g id="add_wo_icon" transform="translate(1037.000000, 1178.000000)">
                <rect id="Rectangle-39" x="0" y="0" width="20" height="20"></rect>
                <g id="Group-34" transform="translate(0.000000, 5.000000)" fill="#383175">
                    <g id="Group-32">
                        <g id="Group-33">
                            <rect id="Rectangle-22" x="0" y="0" width="12" height="2"></rect>
                        </g>
                    </g>
                </g>
                <path d="M16,9 L18,9 L18,18 C18,18.5522847 17.5522847,19 17,19 L1,19 C0.44771525,19 0,18.5522847 0,18 L0,3 L12,3 L12,5 L2,5 L2,17 L16,17 L16,9 Z" id="Combined-Shape" fill="#383175" fill-rule="nonzero"></path>
                <rect id="Rectangle-33" fill="#383175" x="16" y="1" width="2" height="6"></rect>
                <rect id="Rectangle-33-Copy" fill="#383175" transform="translate(17.000000, 4.000000) rotate(90.000000) translate(-17.000000, -4.000000) " x="16" y="1" width="2" height="6"></rect>
                <path d="M4,9 L6,9 L6,11 L4,11 L4,9 Z M4,13 L6,13 L6,15 L4,15 L4,13 Z M7,9 L14,9 L14,11 L7,11 L7,9 Z M7,13 L14,13 L14,15 L7,15 L7,13 Z" id="Combined-Shape" fill="#383175"></path>
            </g>
        </g>
    </g>
</svg>