<?xml version="1.0" encoding="UTF-8"?>
<svg width="16px" height="18px" viewBox="0 0 16 18" version="1.1" xmlns="http://www.w3.org/2000/svg" xmlns:xlink="http://www.w3.org/1999/xlink">
    <!-- Generator: sketchtool 51.3 (57544) - http://www.bohemiancoding.com/sketch -->
    <title>2628C649-DF8A-43A7-A818-302A68806474</title>
    <desc>Created with sketchtool.</desc>
    <defs></defs>
    <g id="Page-1" stroke="none" stroke-width="1" fill="none" fill-rule="evenodd">
        <g id="Pasco_Calendar_miniUIkit" transform="translate(-1068.000000, -1179.000000)">
            <g id="load_more_icon" transform="translate(1065.000000, 1178.000000)">
                <rect id="Rectangle-39" x="0" y="0" width="20" height="20"></rect>
                <g id="Group-17" transform="translate(3.000000, 1.000000)" fill="#383175" fill-rule="nonzero">
                    <g id="Group-22">
                        <g id="Group-21">
                            <g id="Group-20">
                                <path d="M6,4.34141142 C3.66961525,5.16508423 2,7.38756235 2,10 C2,13.3137085 4.6862915,16 8,16 C10.4544807,16 12.633285,14.5127171 13.5514149,12.2811978 L15.4009843,13.0421793 C14.1769962,16.0170885 11.2721178,18 8,18 C3.581722,18 0,14.418278 0,10 C0,6.27232114 2.54954557,3.14012056 6,2.25203497 L6,0 L12,3 L6,6 L6,4.34141142 Z" id="Combined-Shape"></path>
                            </g>
                        </g>
                    </g>
                </g>
            </g>
        </g>
    </g>
</svg>