<?xml version="1.0" encoding="UTF-8"?>
<svg width="18px" height="18px" viewBox="0 0 18 18" version="1.1" xmlns="http://www.w3.org/2000/svg" xmlns:xlink="http://www.w3.org/1999/xlink">
    <!-- Generator: sketchtool 53.1 (72631) - https://sketchapp.com -->
    <title>64E95C7F-8425-452C-99C4-110D9ACF4608</title>
    <desc>Created with sketchtool.</desc>
    <g id="Page-1" stroke="none" stroke-width="1" fill="none" fill-rule="evenodd">
        <g id="Pasco-WO-List-All" transform="translate(-788.000000, -488.000000)" fill="#F2627B" fill-rule="nonzero">
            <path d="M799.341411,494 L790,494 L790,504 L804,504 L804,497.917042 C804.325208,497.971601 804.659288,498 805,498 C805.340712,498 805.674792,497.971601 806,497.917042 L806,505 C806,505.552285 805.552285,506 805,506 L789,506 C788.447715,506 788,505.552285 788,505 L788,492 L788,490 L799.341411,490 C799.120308,490.625558 799,491.298729 799,492 C799,492.701271 799.120308,493.374442 799.341411,494 Z M792,496 L794,496 L794,498 L792,498 L792,496 Z M792,500 L794,500 L794,502 L792,502 L792,500 Z M795,496 L800,496 L800,498 L795,498 L795,496 Z M795,500 L802,500 L802,502 L795,502 L795,500 Z M804,494 L806,494 L806,496 L804,496 L804,494 Z M804,488 L806,488 L806,493 L804,493 L804,488 Z" id="Combined-Shape"></path>
        </g>
    </g>
</svg>