<?xml version="1.0" encoding="UTF-8"?>
<svg width="18px" height="19px" viewBox="0 0 18 19" version="1.1" xmlns="http://www.w3.org/2000/svg" xmlns:xlink="http://www.w3.org/1999/xlink">
    <!-- Generator: sketchtool 51.3 (57544) - http://www.bohemiancoding.com/sketch -->
    <title>A2A73668-1174-4653-B24E-EC68F02725AE</title>
    <desc>Created with sketchtool.</desc>
    <defs></defs>
    <g id="Page-1" stroke="none" stroke-width="1" fill="none" fill-rule="evenodd">
        <g id="Pasco_Calendar_miniUIkit" transform="translate(-1326.000000, -1180.000000)">
            <g id="search" transform="translate(1325.000000, 1180.000000)">
                <path d="M3,10 L7,10 L7,17 C7,18.1045695 6.1045695,19 5,19 L5,19 C3.8954305,19 3,18.1045695 3,17 L3,10 Z" id="Rectangle-47" fill="#383175" transform="translate(5.000000, 14.500000) rotate(45.000000) translate(-5.000000, -14.500000) "></path>
                <rect id="Rectangle-32" stroke="#383175" stroke-width="2" transform="translate(12.000000, 7.000000) scale(-1, 1) rotate(90.000000) translate(-12.000000, -7.000000) " x="6" y="1" width="12" height="12" rx="6"></rect>
            </g>
        </g>
    </g>
</svg>